{
  "title": "Твоя задача - собрать флаг Российской Федерации, расставляя плашки с цветами.\n",
  "items": [
    "flag/assets/Asset 1.png",
    "flag/assets/Asset 2.png",
    "flag/assets/Asset 3.png",
    "flag/assets/Asset 4.png",
    "flag/assets/Asset 5.png",
    "flag/assets/Asset 6.png"
  ],
  "successIcon": "flag/assets/flag/Group 15.png",
  "successBackground": "dragndrop/assets/success-background.png",
  "successTitle": "Ты молодец!\uD83D\uDE42\n\n",
  "successText": "Символика флага России имеет глубокие исторические и культурные корни. Красный цвет символизирует мужество и отвагу русского народа, а также его доблесть в борьбе за свободу и независимость. Синий цвет отражает веру, преданность и силу. Белый цвет символизирует чистоту и незыблемость исторических и культурных ценностей России.\n\nКомбинация этих цветов в флаге России отражает гармонию, единство и мирное сосуществование различных народов, культур и религий внутри страны.\n\n\n\n",
  "crossIcon": "dragndrop/assets/Group 14.png",
  "iconLeftMargin": "15px",
  "checkButtonTitle": "Проверить",
  "retryButtonTitle": "Попробуй еще раз",
  "retryDescription": "Не совсем верно",
  "itemsContainerWidth": "48.5%",
  "itemsWidth": [["100%"]],
  "backgroundWidth": "51.5%",
  "containerMaxWidth": "500px",
  "background": "flag/assets/Asset 7.png",
  "correctOrder": [
    4,
    2,
    1
  ],
  "iconsOffsets": [["103%","15%"]],
  "zonesWidths": [
    [
      "95%"
    ]
  ],
  "zonesHeights": [
    [
      "14.5%"
    ]
  ],
  "zonesOffsets": [
    [
      "5%",
      "5%"
    ],
    [
      "5%",
      "20%"
    ],
    [
      "5%",
      "35%"
    ]
  ],
  "showZones": false
}
